…
    ## Warning in FUN(X[[i]], ...): strings not representable in native encoding
    ## will be translated to UTF-8

``` r
Trash_data
```

    ## # A tibble: 344 x 14
    ##    dumpster month  year date                weight_tons volume_cubic_ya~
    ##       <dbl> <chr> <dbl> <dttm>                    <dbl>            <dbl>
    ##  1        1 May    2014 2014-05-16 00:00:00        4.31               18
    ##  2        2 May    2014 2014-05-16 00:00:00        2.74               13
    ##  3        3 May    2014 2014-05-16 00:00:00        3.45               15
    ##  4        4 May    2014 2014-05-17 00:00:00        3.1                15
    ##  5        5 May    2014 2014-05-17 00:00:00        4.06               18
    ##  6        6 May    2014 2014-05-20 00:00:00        2.71               13
    ##  7        7 May    2014 2014-05-21 00:00:00        1.91                8
    ##  8        8 May    2014 2014-05-28 00:00:00        3.7                16
    ##  9        9 June   2014 2014-06-05 00:00:00        2.52               14
    ## 10       10 June   2014 2014-06-11 00:00:00        3.76               18
    ## # ... with 334 more rows, and 8 more variables: plastic_bottles <dbl>,
    ## #   polystyrene <dbl>, cigarette_butts <dbl>, glass_bottles <dbl>,
    ## #   grocery_bags <dbl>, chip_bags <dbl>, sports_balls <int>,
    ## #   homes_powered <dbl>
…
``` r
pols_month
```

    ## # A tibble: 1,644 x 10
    ##    year  month gov_gop sen_gop rep_gop gov_dem sen_dem rep_dem president
    ##    <chr> <chr>   <dbl>   <dbl>   <dbl>   <dbl>   <dbl>   <dbl> <chr>    
    ##  1 1947  Janu~      23      51     253      23      45     198 gop      
    ##  2 1947  Janu~      23      51     253      23      45     198 dem      
    ##  3 1947  Febr~      23      51     253      23      45     198 gop      
    ##  4 1947  Febr~      23      51     253      23      45     198 dem      
    ##  5 1947  March      23      51     253      23      45     198 gop      
    ##  6 1947  March      23      51     253      23      45     198 dem      
    ##  7 1947  April      23      51     253      23      45     198 gop      
    ##  8 1947  April      23      51     253      23      45     198 dem      
    ##  9 1947  May        23      51     253      23      45     198 gop      
    ## 10 1947  May        23      51     253      23      45     198 dem      
    ## # ... with 1,634 more rows, and 1 more variable: value <dbl>
…
    ## Parsed with column specification:
    ## cols(
    ##   date = col_character(),
    ##   close = col_double()
    ## )

``` r
snp
```

    ## # A tibble: 787 x 4
    ##    month     day   year  close
    ##    <chr>     <chr> <chr> <dbl>
    ##  1 January   3     1950   17.0
    ##  2 February  1     1950   17.2
    ##  3 March     1     1950   17.3
    ##  4 April     3     1950   18.0
    ##  5 May       1     1950   18.8
    ##  6 June      1     1950   17.7
    ##  7 July      3     1950   17.8
    ##  8 August    1     1950   18.4
    ##  9 September 1     1950   19.5
    ## 10 October   2     1950   19.5
    ## # ... with 777 more rows
